{
    "openapi": "3.0.2",
    "info": {
        "version": "1.0",
        "title": "Demo Mojo OpenAPI Server",
        "description": "This is a sample server for a mojolicious app.",
        "contact": {
            "name": "Joshua Rowe",
            "url": "https://gitlab.com/jtrowe/"
        }
    },
    "servers": [
        {
            "url": "/api/v1",
            "description": "Version one api"
        }
    ],
    "paths": {
        "/file/{**}": {
            "get": {
                "summary": "Get the specified file information",
                "operationId": "getFileInfo",
                "x-mojo-name": "get_file_info",
                "x-mojo-to": {
                    "controller": "Main",
                    "action": "get_file_info"
                },
                "responses": {
                    "200": {
                        "description": "File Info",
                        "content": {
                            "application/json": {
                                "schema": {
                                    "type": "object",
                                    "properties": {
                                        "file": {
                                            "type": "string"
                                        },
                                        "status": {
                                            "type": "integer"
                                        }
                                    }
                                }
                            }
                        }
                    }
                }
            }
        },
        "/status": {
            "get": {
                "summary": "Get the server status",
                "tags": ["status"],
                "operationId": "getStatus",
                "x-mojo-name": "get_status",
                "x-mojo-to": {
                    "controller": "Main",
                    "action": "get_status"
                },
                "responses": {
                    "200": {
                        "description": "Server Status",
                        "content": {
                            "application/json": {
                                "schema": {
                                    "type": "object",
                                    "properties": {
                                        "status": {
                                            "type": "string"
                                        }
                                    }
                                }
                            }
                        }
                    }
                }
            }
        }
    }
}
